{
  "client_id": "e6124b33-c304-4ab3-be71-e97bfc18599f",
  "client_secret": "cd9bbaf5-4abe-483d-b8f7-3cb789c52fef",
  "aplicacion_id": 91,
  "roles": {
    "admin_servir": 99,
    "admin_entidad": 100,
    "gestor_orh": 104,
    "coordinador": 105,
    "configurador": 106
  },
  "maestraDetalle": {
    "ley30057": "1",
    "dl276": "2",
    "dl728": "3",
    "dl1401": "4",
    "dl1057": "5",

    "mod_no_aplica": "4",
    "tipo_no_aplica": "5",

    "pract_preprofesional": "1",
    "pract_profesional": "2",

    "egresado": "1",
    "estudiante": "2",

    "sit_acad_egresado": "1",
    "sit_acad_bachiller": "2",
    "sit_acad_titulo_lic": "3",
    "sit_acad_maestria": "4",
    "sit_acad_doctorado": "5",
    "sit_acad_segunda_esp": "6",
    "sit_acad_pregrado": "7",

    "diplomado": "2",
    "taller": "1",
    "curso": "3"
  },
  "informes": {
    "base_legal": "1",
    "bonificaciones": "2",
    "declara_jurada": "3",
    "crit_evaluacion": "4",
    "base_legal_esp": "8"
  },
  "etapa_base": {
    "proceso": "1",
    "aprobado": "2",
    "completado": "3",
    "observado": "4",
    "enviado": "5",

    "por_revisar": "2",
    "revisado": "3",
    "publicado": "5",
    "por_publicar": "6",
    "eliminado": "7"
  }
}
